…
    ## v ggplot2 2.2.1     v purrr   0.2.4
    ## v tibble  1.3.4     v dplyr   0.7.4
    ## v tidyr   0.7.2     v stringr 1.2.0
    ## v readr   1.1.1     v forcats 0.2.0

    ## -- Conflicts -------------------------------------------- tidyverse_conflicts() --
    ## x dplyr::filter() masks stats::filter()
    ## x dplyr::lag()    masks stats::lag()

Motivation
==========

Now that we have loaded and installed everything we need, let's jump into the problem and motivation for using approxmap. Let's say you have a dataset that looks like this:

    ## # A tibble: 51,264 x 3
    ##       id     period       event
    ##    <int>      <chr>       <chr>
    ##  1     1 1993-07-01    training
    ##  2     2 1993-07-01 joblessness
    ##  3     3 1993-07-01 joblessness
    ##  4     4 1993-07-01    training
    ##  5     5 1993-07-01 joblessness
    ##  6     6 1993-07-01 joblessness
    ##  7     7 1993-07-01 joblessness
    ##  8     8 1993-07-01  employment
    ##  9     9 1993-07-01 joblessness
    ## 10    10 1993-07-01  employment
    ## # ... with 51,254 more rows
…
Let us go through the sequence of steps involved in analyzing the mvad dataset using approxmap. Please note that this version of approxmap only supports unique items within an itemset.

General Instructions
--------------------

1.  Any time you need more information on a particular function, you could, as always, use `?function_name` to get detailed help.
2.  The package uses the `%>%` operator (Ctrl/Cmd + Shift + M). This means you can move from one function to another seamlessly.

1. Aggregate the data
---------------------

For the algorithm to create sequences, it needs data in the form:

    ## # A tibble: 350 x 3
    ##       id period event
    ##    <int>  <int> <int>
    ##  1     1      1    63
    ##  2     1      2    20
    ##  3     1      2    22
    ##  4     1      2    23
    ##  5     1      2    50
    ##  6     1      2    66
    ##  7     1      2    96
    ##  8     1      3    16
    ##  9     1      3    50
    ## 10     1      4    51
    ## # ... with 340 more rows
…
    ## The number of unique items is 6
    ## 
    ## Statistics for the number of sets per sequence:
    ##    Min. 1st Qu.  Median    Mean 3rd Qu.    Max. 
    ##   1.000   2.000   3.000   2.751   3.000   5.000 
    ## 
    ## Statistics for the number of items in a set
    ##    Min. 1st Qu.  Median    Mean 3rd Qu.    Max. 
    ##       1       1       1       1       1       1 
    ## 
    ## Frequencies of items
    ##    Min. 1st Qu.  Median    Mean 3rd Qu.    Max. 
    ##   182.0   229.2   299.5   326.5   347.2   609.0

    ## # A tibble: 1,959 x 3
    ## # Groups:   id, event [1,959]
    ##       id period       event
    ##    <int>  <int>       <chr>
    ##  1     1      1    training
    ##  2     1      3  employment
    ##  3     2      1 joblessness
    ##  4     2      3          FE
    ##  5     2     39          HE
    ##  6     3      1 joblessness
    ##  7     3      3    training
    ##  8     3     27          FE
    ##  9     3     61  employment
    ## 10     4      1    training
    ## # ... with 1,949 more rows
…
    ## Clustering...

    ## Calculating distance matrix...

    ## Caching distance matrix...

    ## Selecting by n

``` r
df_sequences
```

    ## [[1]]
    ## # A tibble: 162 x 2
    ##       id       sequence
    ##    <int>         <list>
    ##  1     7 <S3: Sequence>
    ##  2    14 <S3: Sequence>
    ##  3    64 <S3: Sequence>
    ##  4    74 <S3: Sequence>
    ##  5   125 <S3: Sequence>
    ##  6   167 <S3: Sequence>
    ##  7   168 <S3: Sequence>
    ##  8   173 <S3: Sequence>
    ##  9   176 <S3: Sequence>
    ## 10   188 <S3: Sequence>
    ## # ... with 152 more rows
    ## 
    ## [[2]]
    ## # A tibble: 114 x 2
    ##       id       sequence
    ##    <int>         <list>
    ##  1     8 <S3: Sequence>
    ##  2    30 <S3: Sequence>
    ##  3   134 <S3: Sequence>
    ##  4   157 <S3: Sequence>
    ##  5   163 <S3: Sequence>
    ##  6   180 <S3: Sequence>
    ##  7   182 <S3: Sequence>
    ##  8   183 <S3: Sequence>
    ##  9   186 <S3: Sequence>
    ## 10   192 <S3: Sequence>
    ## # ... with 104 more rows

To explore these sequences, we also have tidy print methods. The functional programming toolkit for R, `purrr` provides an efficient means to fully exploit such outputs.

``` r
df_sequences %>%
          map(function(df_cluster){
            df_cluster %>%
              mutate(sequence = map_chr(sequence, format_sequence))
          })
```

    ## [[1]]
    ## # A tibble: 162 x 2
    ##       id                          sequence
    ##    <int>                             <chr>
    ##  1     7 <(joblessness) (FE) (employment)>
    ##  2    14 <(joblessness) (FE) (employment)>
    ##  3    64 <(joblessness) (FE) (employment)>
    ##  4    74 <(joblessness) (FE) (employment)>
    ##  5   125 <(joblessness) (FE) (employment)>
    ##  6   167 <(joblessness) (FE) (employment)>
    ##  7   168 <(joblessness) (FE) (employment)>
    ##  8   173 <(joblessness) (FE) (employment)>
    ##  9   176 <(joblessness) (FE) (employment)>
    ## 10   188 <(joblessness) (FE) (employment)>
    ## # ... with 152 more rows
    ## 
    ## [[2]]
    ## # A tibble: 114 x 2
    ##       id            sequence
    ##    <int>               <chr>
    ##  1     8 <(employment) (FE)>
    ##  2    30 <(employment) (FE)>
    ##  3   134 <(employment) (FE)>
    ##  4   157 <(employment) (FE)>
    ##  5   163 <(employment) (FE)>
    ##  6   180 <(employment) (FE)>
    ##  7   182 <(employment) (FE)>
    ##  8   183 <(employment) (FE)>
    ##  9   186 <(employment) (FE)>
    ## 10   192 <(employment) (FE)>
    ## # ... with 104 more rows
